[
  { "uf": "AL" },
  { "uf": "AM" },
  { "uf": "BA" },
  { "uf": "CE" },
  { "uf": "DF" },
  { "uf": "ES" },
  { "uf": "GO" },
  { "uf": "MA" },
  { "uf": "MG" },
  { "uf": "MS" },
  { "uf": "MT" },
  { "uf": "PA" },
  { "uf": "PB" },
  { "uf": "PE" },
  { "uf": "PI" },
  { "uf": "PR" },
  { "uf": "RJ" },
  { "uf": "RN" },
  { "uf": "RS" },
  { "uf": "SC" },
  { "uf": "SE" },
  { "uf": "SP" }
]
